{
  "photos": {
    "page": 1,
    "pages": 60,
    "perpage": 7,
    "total": "415",
    "photo": [
      {
        "id": "29103697453",
        "owner": "113231763@N07",
        "secret": "ca811d0e07",
        "server": "8279",
        "farm": 9,
        "title": "Plymouth Barbican",
        "ispublic": 1,
        "isfriend": 0,
        "isfamily": 0
      },
      {
        "id": "29707349205",
        "owner": "113231763@N07",
        "secret": "a565e55065",
        "server": "8161",
        "farm": 9,
        "title": "Caught Between a Rock & a Cold Place",
        "ispublic": 1,
        "isfriend": 0,
        "isfamily": 0
      },
      {
        "id": "29596220342",
        "owner": "113231763@N07",
        "secret": "ce65209489",
        "server": "8478",
        "farm": 9,
        "title": "White Cosmos",
        "ispublic": 1,
        "isfriend": 0,
        "isfamily": 0
      },
      {
        "id": "28908609153",
        "owner": "113231763@N07",
        "secret": "4fc0f139c3",
        "server": "8716",
        "farm": 9,
        "title": "Great Fire of London",
        "ispublic": 1,
        "isfriend": 0,
        "isfamily": 0
      },
      {
        "id": "29401046232",
        "owner": "113231763@N07",
        "secret": "dd16b5b9d5",
        "server": "8539",
        "farm": 9,
        "title": "Heron Quays",
        "ispublic": 1,
        "isfriend": 0,
        "isfamily": 0
      },
      {
        "id": "29218386032",
        "owner": "113231763@N07",
        "secret": "3a1a0f11b6",
        "server": "8200",
        "farm": 9,
        "title": "Reflecting on Derwentwater at Dawn",
        "ispublic": 1,
        "isfriend": 0,
        "isfamily": 0
      },
      {
        "id": "29268575556",
        "owner": "113231763@N07",
        "secret": "8dac01acf2",
        "server": "7466",
        "farm": 8,
        "title": "Early Morning Light on Skiddaw",
        "ispublic": 1,
        "isfriend": 0,
        "isfamily": 0
      }
    ]
  },
  "stat": "ok"
}